{
    "/assets/lambda/js/agent.js": "/assets/lambda/js/agent.js?id=eceb11ab6ebb0d11cb3ab41a4784c970",
    "/assets/lambda/js/puzzle.js": "/assets/lambda/js/puzzle.js?id=673d01c4d0421ae9a753414b46f97582",
    "/assets/lambda/js/krud.js": "/assets/lambda/js/krud.js?id=ced5ea60c22239a00e93ea2693daf373",
    "/assets/lambda/js/datagrid.js": "/assets/lambda/js/datagrid.js?id=3935bc2f49b9e27cb3065b3f8a811152",
    "/assets/lambda/js/datagrid-builder.js": "/assets/lambda/js/datagrid-builder.js?id=e69aea554d6600695b8017b8e4aa412f",
    "/assets/lambda/js/dataform.js": "/assets/lambda/js/dataform.js?id=3dd7698c1145e3cbefb53d876dfc5e53",
    "/assets/lambda/js/dataform-builder.js": "/assets/lambda/js/dataform-builder.js?id=38043ccce6d7af6a692ecad93d93ce9b",
    "/assets/lambda/js/datasource.js": "/assets/lambda/js/datasource.js?id=9db0867251d6b834f876d24b7c308bec",
    "/assets/lambda/js/paper.js": "/assets/lambda/js/paper.js?id=5668367c789304111e0d2777a4edaa30",
    "/assets/lambda/js/manifest.js": "/assets/lambda/js/manifest.js?id=85977fcb102fd05dc6351fe220b79bf4",
    "/assets/lambda/js/chunks/moqup-index.f9c38570c7cbf89b.js": "/assets/lambda/js/chunks/moqup-index.f9c38570c7cbf89b.js?id=e8b03c2f2b9cbfb4bb20b835d9d1ad38",
    "/assets/lambda/js/chunks/moqup-list.5deada3457ee5d00.js": "/assets/lambda/js/chunks/moqup-list.5deada3457ee5d00.js?id=dd220938881e67cba50a7526e2175c21",
    "/assets/lambda/js/chunks/moqup-builder.8cc2b8614356e8a7.js": "/assets/lambda/js/chunks/moqup-builder.8cc2b8614356e8a7.js?id=8c6661c5b67c8beab9c40e97aa6c6783",
    "/assets/lambda/js/chunks/moqup-preview.a318a0d409b9ebcd.js": "/assets/lambda/js/chunks/moqup-preview.a318a0d409b9ebcd.js?id=ab1af7b9def9f48d062fe4076d349d6d",
    "/assets/lambda/js/chunks/graphql-index.99f84057b5424920.js": "/assets/lambda/js/chunks/graphql-index.99f84057b5424920.js?id=41ad6c0efb85fb35932c95612a65e29f",
    "/assets/lambda/js/chunks/graphql-list.78f38a4a6981cc3d.js": "/assets/lambda/js/chunks/graphql-list.78f38a4a6981cc3d.js?id=24b5995cd29119733a7ff264a72c3e44",
    "/assets/lambda/js/chunks/graphql-builder.25aaef6a2a878432.js": "/assets/lambda/js/chunks/graphql-builder.25aaef6a2a878432.js?id=fa3c8157478671610e4246762322d576",
    "/assets/lambda/js/chunks/chart-index.8d7af0f7aad68d44.js": "/assets/lambda/js/chunks/chart-index.8d7af0f7aad68d44.js?id=95a3c4739895d4f1d3b4d7d6129633d6",
    "/assets/lambda/js/chunks/chart-list.5b547a88aea390eb.js": "/assets/lambda/js/chunks/chart-list.5b547a88aea390eb.js?id=4e288884d0b60b79e370a257c2b176b6",
    "/assets/lambda/js/chunks/chart-builder.02dc38132b219ebf.js": "/assets/lambda/js/chunks/chart-builder.02dc38132b219ebf.js?id=fdf44d746e54fa82c6b58f52199aaf63",
    "/assets/lambda/js/chunks/chart-preview.38185f503eb79d44.js": "/assets/lambda/js/chunks/chart-preview.38185f503eb79d44.js?id=624b454bed12bd66fa2606ec1ee8f886",
    "/assets/lambda/js/chunks/analytic-index.9c88ced3a02209c2.js": "/assets/lambda/js/chunks/analytic-index.9c88ced3a02209c2.js?id=5c6e3eed005176ec764d913632d6db93",
    "/assets/lambda/js/chunks/notification-index.301d529a139e8a53.js": "/assets/lambda/js/chunks/notification-index.301d529a139e8a53.js?id=b8187a1e1b33835134312f719f0522de",
    "/assets/lambda/js/chunks/datasource-index.6d42ec6f5f0a6eb6.js": "/assets/lambda/js/chunks/datasource-index.6d42ec6f5f0a6eb6.js?id=728367e0ba9240106067a06a5c442891",
    "/assets/lambda/js/chunks/datasource-list.55f5a907e9b10ce5.js": "/assets/lambda/js/chunks/datasource-list.55f5a907e9b10ce5.js?id=f02a19d739e9ec08d93f9950be612cf1",
    "/assets/lambda/js/chunks/datasource-builder.5afe8b747d79caf9.js": "/assets/lambda/js/chunks/datasource-builder.5afe8b747d79caf9.js?id=62a172b135700e96fa32f5a4dd991bb0",
    "/assets/lambda/js/chunks/form-index.c429b108231e8be2.js": "/assets/lambda/js/chunks/form-index.c429b108231e8be2.js?id=9557492b05bb4d144b05d59d688042e3",
    "/assets/lambda/js/chunks/form-list.8822b6ed26535bd4.js": "/assets/lambda/js/chunks/form-list.8822b6ed26535bd4.js?id=10ba61de4234e980d0fc07db43997993",
    "/assets/lambda/js/chunks/form-builder.a61a2a4a2bd4d185.js": "/assets/lambda/js/chunks/form-builder.a61a2a4a2bd4d185.js?id=20a9c8e52bc9922f04cb252d87e04a29",
    "/assets/lambda/js/chunks/form-preview.e0d4f7aa6080625c.js": "/assets/lambda/js/chunks/form-preview.e0d4f7aa6080625c.js?id=27504341ac71c89b52e27f5b49e9d2df",
    "/assets/lambda/js/chunks/grid-index.1a3361576c3143fb.js": "/assets/lambda/js/chunks/grid-index.1a3361576c3143fb.js?id=ca3da3e7300a43c913b8a9839f27a770",
    "/assets/lambda/js/chunks/grid-list.2c28f4096e4aad92.js": "/assets/lambda/js/chunks/grid-list.2c28f4096e4aad92.js?id=156e5b450b8259e83ee7ce5c661c4258",
    "/assets/lambda/js/chunks/grid-builder.495552b80ca77746.js": "/assets/lambda/js/chunks/grid-builder.495552b80ca77746.js?id=6c80ed79d3a4e22c54e941422026a30e",
    "/assets/lambda/js/chunks/grid-preview.120ca1b2d8484949.js": "/assets/lambda/js/chunks/grid-preview.120ca1b2d8484949.js?id=730dfbc181e4bf285ebf8511dbde7fe9",
    "/assets/lambda/js/chunks/embed-form.618789393f17adff.js": "/assets/lambda/js/chunks/embed-form.618789393f17adff.js?id=e3c11c5993721f48235d18e525219d36",
    "/assets/lambda/js/chunks/embed-grid.5162d701d4564dbb.js": "/assets/lambda/js/chunks/embed-grid.5162d701d4564dbb.js?id=fd3d9cab6a78ef46a3e0e54b4f5b98ae",
    "/assets/lambda/js/chunks/role-index.50d7a9011da3250a.js": "/assets/lambda/js/chunks/role-index.50d7a9011da3250a.js?id=ceb489a6f6f655578ef3393eac7e0e06",
    "/assets/lambda/js/chunks/crud-index.006220c3d3a4015b.js": "/assets/lambda/js/chunks/crud-index.006220c3d3a4015b.js?id=4295a812d0eec5db3e686f867a2e84ef",
    "/assets/lambda/js/chunks/menu-index.79b0275bed2cd6ad.js": "/assets/lambda/js/chunks/menu-index.79b0275bed2cd6ad.js?id=14e27c88a9f575fcbb75159f910a2a39",
    "/assets/lambda/js/chunks/render-index.f2b0c1047c33a4ee.js": "/assets/lambda/js/chunks/render-index.f2b0c1047c33a4ee.js?id=edf6fbd7cfbacbaecf6cac44b566b091",
    "/assets/lambda/js/chunks/report-index.ce92af88cee1ae09.js": "/assets/lambda/js/chunks/report-index.ce92af88cee1ae09.js?id=99eee1c364d6d91bbe313ba7e47ec9e1",
    "/assets/lambda/js/chunks/report-list.2a64d2930e14c8aa.js": "/assets/lambda/js/chunks/report-list.2a64d2930e14c8aa.js?id=93fbf2549c8def385bae86c0e469f8e4",
    "/assets/lambda/js/chunks/report-builder.21c7c2abb0704c51.js": "/assets/lambda/js/chunks/report-builder.21c7c2abb0704c51.js?id=1b149743126ec67c20a0ae02cd2c495b",
    "/assets/lambda/js/chunks/report-preview.dbc13f8242f6a6e3.js": "/assets/lambda/js/chunks/report-preview.dbc13f8242f6a6e3.js?id=15c2739aa986ef89a22de2c6ef129af8",
    "/assets/lambda/js/chunks/project-index.84c63752b9957bca.js": "/assets/lambda/js/chunks/project-index.84c63752b9957bca.js?id=4ba686ec672ed01835e857bac237b9e3",
    "/assets/lambda/js/chunks/views-404.7c109d958b1b260e.js": "/assets/lambda/js/chunks/views-404.7c109d958b1b260e.js?id=e2a8eefee47c71aaf8d8b675e0043fab",
    "/assets/lambda/js/chunks/krud-canvas.02fb8419a34d075d.js": "/assets/lambda/js/chunks/krud-canvas.02fb8419a34d075d.js?id=8332ec86e6208f8f7caa48471f63879c",
    "/assets/lambda/js/chunks/krud-create.e6c5e482b042f442.js": "/assets/lambda/js/chunks/krud-create.e6c5e482b042f442.js?id=a82f086f5622dcacc8d76bac1d230b9c",
    "/assets/lambda/js/chunks/krud-default.5466f3f2f7287c41.js": "/assets/lambda/js/chunks/krud-default.5466f3f2f7287c41.js?id=791952eedbc30ad7ba9e9c1ab4223bf3",
    "/assets/lambda/js/chunks/krud-spa.7c50b1c15b5d3af5.js": "/assets/lambda/js/chunks/krud-spa.7c50b1c15b5d3af5.js?id=69a7d4f338a6204e61c1d317f2bf96ac",
    "/assets/lambda/js/chunks/krud-window.fc44cbbd02560f8b.js": "/assets/lambda/js/chunks/krud-window.fc44cbbd02560f8b.js?id=de47d0b4678bbbb845a5d16c7da4c002",
    "/assets/lambda/js/chunks/krud-withSubCruds.085be16435c97c36.js": "/assets/lambda/js/chunks/krud-withSubCruds.085be16435c97c36.js?id=de58dd7f39a400d35736187057674a9c",
    "/assets/lambda/js/chunks/krud-progress-list.e34fabf6475914d0.js": "/assets/lambda/js/chunks/krud-progress-list.e34fabf6475914d0.js?id=6734cce2e986b7a59bc5178117dfede7",
    "/assets/lambda/js/chunks/Datagrid-el.277568296260a6c5.js": "/assets/lambda/js/chunks/Datagrid-el.277568296260a6c5.js?id=b53f0c49508e85fbe89b9ff708f952e4",
    "/assets/lambda/js/chunks/grid-Text.8ace8c38d19f57cc.js": "/assets/lambda/js/chunks/grid-Text.8ace8c38d19f57cc.js?id=80b6c96672b73238c7b84806943a3ddb",
    "/assets/lambda/js/chunks/grid-Select.b31aaade398540d5.js": "/assets/lambda/js/chunks/grid-Select.b31aaade398540d5.js?id=254ce7cba22ee76992062b1301040c82",
    "/assets/lambda/js/chunks/grid-Number.5304fd718bc96282.js": "/assets/lambda/js/chunks/grid-Number.5304fd718bc96282.js?id=37780c686030a47e64560d180c975702",
    "/assets/lambda/js/chunks/grid-Date.75e15f79250cb588.js": "/assets/lambda/js/chunks/grid-Date.75e15f79250cb588.js?id=c93b253e557e9d9013d86da1302a6cc5",
    "/assets/lambda/js/chunks/grid-Image-Item.7f8bf0490c1f6bdd.js": "/assets/lambda/js/chunks/grid-Image-Item.7f8bf0490c1f6bdd.js?id=292cd4190f64d92439ef89eef31f8e79",
    "/assets/lambda/js/chunks/grid-Image-Base64.804858bec11da218.js": "/assets/lambda/js/chunks/grid-Image-Base64.804858bec11da218.js?id=26871619f1a124a2c313ae686e980425",
    "/assets/lambda/js/chunks/grid-File.6daadc7157c1e80d.js": "/assets/lambda/js/chunks/grid-File.6daadc7157c1e80d.js?id=53509825ab1cc1597c1313a35b090d25",
    "/assets/lambda/js/chunks/grid-Checkbox.9dd76f1376d3c567.js": "/assets/lambda/js/chunks/grid-Checkbox.9dd76f1376d3c567.js?id=ac31f0648868fe9ff1cce44715ad0e34",
    "/assets/lambda/js/chunks/grid-Custom.401eb1700da9b781.js": "/assets/lambda/js/chunks/grid-Custom.401eb1700da9b781.js?id=073083c570bfa25e20b0c982d1569780",
    "/assets/lambda/js/chunks/grid-DateRange.aaabe2d9c2c99e03.js": "/assets/lambda/js/chunks/grid-DateRange.aaabe2d9c2c99e03.js?id=9be95e992a476d1accf2d2749cb88996",
    "/assets/lambda/js/chunks/grid-DateRangeDouble.b7f3c1da4794845f.js": "/assets/lambda/js/chunks/grid-DateRangeDouble.b7f3c1da4794845f.js?id=6b005976d50966c856fd931de4a36986",
    "/assets/lambda/js/chunks/grid-Html.5465921fcfb4ae96.js": "/assets/lambda/js/chunks/grid-Html.5465921fcfb4ae96.js?id=957eeb0b7dfe5b0a5adc319c3d462661",
    "/assets/lambda/js/chunks/grid-Input.0526a714b20c5b56.js": "/assets/lambda/js/chunks/grid-Input.0526a714b20c5b56.js?id=010c7ca937a23d1036438637ff477941",
    "/assets/lambda/js/chunks/grid-Link.87b1fc11e85e79ae.js": "/assets/lambda/js/chunks/grid-Link.87b1fc11e85e79ae.js?id=d8ebf09ebe48a3c6d880076feeaea699",
    "/assets/lambda/js/chunks/grid-Radio.5a582a49f03b677b.js": "/assets/lambda/js/chunks/grid-Radio.5a582a49f03b677b.js?id=71befb5ecedfe7044cce92e8d6a1bd95",
    "/assets/lambda/js/chunks/grid-SetFilter.350ac2aa83d0d811.js": "/assets/lambda/js/chunks/grid-SetFilter.350ac2aa83d0d811.js?id=1502af6db9bf279600eb2e2b754020cc",
    "/assets/lambda/js/chunks/grid-SetFilterDate.f4fbb486f8f62c53.js": "/assets/lambda/js/chunks/grid-SetFilterDate.f4fbb486f8f62c53.js?id=ce6ca080c7d6b62256dc4feca716c542",
    "/assets/lambda/js/chunks/grid-SetFilterAltered.5919e75d6730e363.js": "/assets/lambda/js/chunks/grid-SetFilterAltered.5919e75d6730e363.js?id=9d9d17a945ea85713f42082db4f3698f",
    "/assets/lambda/js/chunks/grid-Tag.afd0b042c7c2c5f7.js": "/assets/lambda/js/chunks/grid-Tag.afd0b042c7c2c5f7.js?id=42941e3893580e77c5c59e5830233b2a",
    "/assets/lambda/js/chunks/grid-Textarea.3b7863113e209bba.js": "/assets/lambda/js/chunks/grid-Textarea.3b7863113e209bba.js?id=72d8b145a59072336f7f496b92bd1046",
    "/assets/lambda/js/chunks/grid-RadioButtonFilter.7ef17d1ce8987492.js": "/assets/lambda/js/chunks/grid-RadioButtonFilter.7ef17d1ce8987492.js?id=bbd6549cd9750f4b76ec58411ff9ad2c",
    "/assets/lambda/js/chunks/grid-Button.d0745274d60f5240.js": "/assets/lambda/js/chunks/grid-Button.d0745274d60f5240.js?id=ba8c508e2b084f9c3fffe568e879652b",
    "/assets/lambda/js/chunks/Dataform-el.3d005f7420db22f7.js": "/assets/lambda/js/chunks/Dataform-el.3d005f7420db22f7.js?id=2cd0c22ab6a4f27ccfe7074017114904",
    "/assets/lambda/js/chunks/form-field-text.e6f3971dad9f6f90.js": "/assets/lambda/js/chunks/form-field-text.e6f3971dad9f6f90.js?id=185c8030b08dc747214b0d31c44f6e51",
    "/assets/lambda/js/chunks/form-field-Select.34efdb5eab6bc463.js": "/assets/lambda/js/chunks/form-field-Select.34efdb5eab6bc463.js?id=3e1937b93e4332404ba6e2385554d5b7",
    "/assets/lambda/js/chunks/form-field-Number.40b4613d927a562d.js": "/assets/lambda/js/chunks/form-field-Number.40b4613d927a562d.js?id=d9a2ce6884a237c8eb01761590236092",
    "/assets/lambda/js/chunks/form-field-Date.288c2fde6ecb20a6.js": "/assets/lambda/js/chunks/form-field-Date.288c2fde6ecb20a6.js?id=a8b8bbad11dcd73ed3f46102daaa7ae7",
    "/assets/lambda/js/chunks/form-field-Textarea.a6cd931e00f5562e.js": "/assets/lambda/js/chunks/form-field-Textarea.a6cd931e00f5562e.js?id=d2fc7963790ff0fae65e455a5a3c490a",
    "/assets/lambda/js/chunks/form-field-Checkbox.4967ce8774e22a42.js": "/assets/lambda/js/chunks/form-field-Checkbox.4967ce8774e22a42.js?id=40da56528b9c1a6cb85c84b6e5e04058",
    "/assets/lambda/js/chunks/form-field-Image.c531c920b51caadb.js": "/assets/lambda/js/chunks/form-field-Image.c531c920b51caadb.js?id=840f2fe9d2f58d98b012364dace56ddd",
    "/assets/lambda/js/chunks/form-field-ImageSubform.055039f3089a1524.js": "/assets/lambda/js/chunks/form-field-ImageSubform.055039f3089a1524.js?id=6e2cfdc7ca4a8ddbd963796b31b1cf18",
    "/assets/lambda/js/chunks/form-field-File.3654c3d382904074.js": "/assets/lambda/js/chunks/form-field-File.3654c3d382904074.js?id=bf17bec3fe67ee49743d9d8b7c6986e8",
    "/assets/lambda/js/chunks/form-field-Radio.efd003c745ad2bd0.js": "/assets/lambda/js/chunks/form-field-Radio.efd003c745ad2bd0.js?id=63d4dad70e23d22a5774d44f9ddee672",
    "/assets/lambda/js/chunks/form-field-sub-form-grid.51ca96034095f1cf.js": "/assets/lambda/js/chunks/form-field-sub-form-grid.51ca96034095f1cf.js?id=cc1525a24ad26079ad181abe004585c1",
    "/assets/lambda/js/chunks/form-field-sub-form.65e134966053230c.js": "/assets/lambda/js/chunks/form-field-sub-form.65e134966053230c.js?id=c9a73c2d2718a98a22ce870f62ed1bd0",
    "/assets/lambda/js/chunks/form-field-ImageDrag.b1dbbed483be5ba8.js": "/assets/lambda/js/chunks/form-field-ImageDrag.b1dbbed483be5ba8.js?id=28a254967b26792e82d1ef3037fe44e1",
    "/assets/lambda/js/chunks/form-field-DateTime.8a9d7dc49f145871.js": "/assets/lambda/js/chunks/form-field-DateTime.8a9d7dc49f145871.js?id=ba7f833fa19a9e981e169d675facfe1b",
    "/assets/lambda/js/chunks/form-field-Divider.4d52be45a7ffc8aa.js": "/assets/lambda/js/chunks/form-field-Divider.4d52be45a7ffc8aa.js?id=2b44cfde1691d6896e57a2755a270b31",
    "/assets/lambda/js/chunks/form-field-CK.ca2d05702c143795.js": "/assets/lambda/js/chunks/form-field-CK.ca2d05702c143795.js?id=c312600f2ff4caa874144164fc7f7108",
    "/assets/lambda/js/chunks/form-field-Password.cf2ded0dab1887ac.js": "/assets/lambda/js/chunks/form-field-Password.cf2ded0dab1887ac.js?id=bced9804c0c2f38aa847a1129f699f63",
    "/assets/lambda/js/chunks/form-field-Money.8a69474617dfaf1a.js": "/assets/lambda/js/chunks/form-field-Money.8a69474617dfaf1a.js?id=64bec20f227e1b415f9a94aad931ad8c",
    "/assets/lambda/js/chunks/form-field-ColorPicker.f70090acaacf52d9.js": "/assets/lambda/js/chunks/form-field-ColorPicker.f70090acaacf52d9.js?id=800975ca062ad6ff0d7394ab4ee20052",
    "/assets/lambda/js/chunks/form-field-Email.43f43e0af9e7983e.js": "/assets/lambda/js/chunks/form-field-Email.43f43e0af9e7983e.js?id=681430eb23edb87f99627bb521192998",
    "/assets/lambda/js/chunks/form-field-TreeSelect.3924759bfddf64e9.js": "/assets/lambda/js/chunks/form-field-TreeSelect.3924759bfddf64e9.js?id=0a64905d7ccfcec92efac34d12a4dd7d",
    "/assets/lambda/js/chunks/form-field-Download.bfcbf705e41bda48.js": "/assets/lambda/js/chunks/form-field-Download.bfcbf705e41bda48.js?id=9be32c417adfa10238a8288416dea925",
    "/assets/lambda/js/chunks/form-field-Geographic.15634176a4fae649.js": "/assets/lambda/js/chunks/form-field-Geographic.15634176a4fae649.js?id=44d0743421442e6fb4d22bf4fb49edbb",
    "/assets/lambda/js/chunks/form-field-Hidden.9bd0433af00f55e4.js": "/assets/lambda/js/chunks/form-field-Hidden.9bd0433af00f55e4.js?id=fdd539069ab13753fed69d0e1c06b2d9",
    "/assets/lambda/js/chunks/form-field-NumberGenerate.838a54c338e8a1a7.js": "/assets/lambda/js/chunks/form-field-NumberGenerate.838a54c338e8a1a7.js?id=0b4e039d34f598ab8e05aa2804979feb",
    "/assets/lambda/js/chunks/form-field-PasswordGenerate.8eb93d3566808f1c.js": "/assets/lambda/js/chunks/form-field-PasswordGenerate.8eb93d3566808f1c.js?id=24b352ab426c84378ec259de5b7bb8a8",
    "/assets/lambda/js/chunks/form-field-RadioWithTextInput.b95fb2ef1865956b.js": "/assets/lambda/js/chunks/form-field-RadioWithTextInput.b95fb2ef1865956b.js?id=f318860f0876d9a565ce7e463694e926",
    "/assets/lambda/js/chunks/form-field-Register.be77df5d16099f35.js": "/assets/lambda/js/chunks/form-field-Register.be77df5d16099f35.js?id=40c045d4b9297681208f15549481fbfc",
    "/assets/lambda/js/chunks/form-field-iSelect.9a9f8e5c3c41b9fc.js": "/assets/lambda/js/chunks/form-field-iSelect.9a9f8e5c3c41b9fc.js?id=bbc756e897abd9af86aabfc5ff2f1cd3",
    "/assets/lambda/js/chunks/form-field-Search.50b33d894a966dde.js": "/assets/lambda/js/chunks/form-field-Search.50b33d894a966dde.js?id=d1b5f99aab69668457789d68e7ff5717",
    "/assets/lambda/js/chunks/form-field-Switch.8e2dadd15b8018ba.js": "/assets/lambda/js/chunks/form-field-Switch.8e2dadd15b8018ba.js?id=888ba806bcbfc9ad0bf2cb3bd95fafad",
    "/assets/lambda/js/chunks/form-field-Time.813bbb523db2755d.js": "/assets/lambda/js/chunks/form-field-Time.813bbb523db2755d.js?id=54c18a003a548073e56ce15c0339b4f8",
    "/assets/lambda/js/chunks/form-field-QGis.425f58d597a15c0c.js": "/assets/lambda/js/chunks/form-field-QGis.425f58d597a15c0c.js?id=3627cb707b16d69fbd45a0f5c3832866",
    "/assets/lambda/js/chunks/form-field-HTML.65cd75a59340fc69.js": "/assets/lambda/js/chunks/form-field-HTML.65cd75a59340fc69.js?id=be18ac9f493f292cfc9dcc04a49b4c2d",
    "/assets/lambda/js/chunks/form-field-AdminMenu.b0c37cf4ec5fa640.js": "/assets/lambda/js/chunks/form-field-AdminMenu.b0c37cf4ec5fa640.js?id=6f4d05edc3da38e00c184c2aca2690d4",
    "/assets/lambda/js/chunks/form-field-GridSelector.257877c876bf6067.js": "/assets/lambda/js/chunks/form-field-GridSelector.257877c876bf6067.js?id=0489d160bb91593a38b0ac487489c0e0",
    "/assets/lambda/js/chunks/form-field-FooterButton.8a1939e3906a5c0a.js": "/assets/lambda/js/chunks/form-field-FooterButton.8a1939e3906a5c0a.js?id=799dee32558b13d13bc5016bb7e7914c",
    "/assets/lambda/js/chunks/form-field-TimeMask.b895708a807e9a6b.js": "/assets/lambda/js/chunks/form-field-TimeMask.b895708a807e9a6b.js?id=d9eb4ff41b0d223c47ad53232e3c3c16",
    "/assets/lambda/js/chunks/form-field-Label.463ecc17873e371c.js": "/assets/lambda/js/chunks/form-field-Label.463ecc17873e371c.js?id=eac4ac19869e49abd123fa8974d0cdbf",
    "/assets/lambda/js/chunks/form-field-not-fount.4501138fe07059d5.js": "/assets/lambda/js/chunks/form-field-not-fount.4501138fe07059d5.js?id=71818e5cb3dbc515c80fa25c0b82981a",
    "/assets/lambda/js/chunks/form-field-CustomElement.dd53f1e75309b16e.js": "/assets/lambda/js/chunks/form-field-CustomElement.dd53f1e75309b16e.js?id=9d0adb8651d0d90c54ac0cab824947f1",
    "/assets/lambda/js/vendor.js": "/assets/lambda/js/vendor.js?id=06559e1f66e8723967e9fb7fa6807973",
    "/assets/lambda/js/datagrid-vendor.js": "/assets/lambda/js/datagrid-vendor.js?id=9c91fd6bed18bcce43febab56dd17c1a",
    "/assets/lambda/css/datagrid.css": "/assets/lambda/css/datagrid.css?id=a4e379c74c08cf73f583d363e846917c",
    "/assets/lambda/css/krud.css": "/assets/lambda/css/krud.css?id=2cc82f01c5c2ddd8edfa7a67118fb0b1",
    "/assets/lambda/css/puzzle.css": "/assets/lambda/css/puzzle.css?id=10c57d42f83d922dfb6dc996ac66eedc",
    "/assets/lambda/css/agent.css": "/assets/lambda/css/agent.css?id=1604547cebcc60677a5fbe93833970d6",
    "/assets/lambda/css/paper.css": "/assets/lambda/css/paper.css?id=dfbb29a89dd1788f7062f90a268b990d",
    "/assets/lambda/css/datasource.css": "/assets/lambda/css/datasource.css?id=850af28ade5cfec44aced1d8f5e4ee91",
    "/assets/lambda/css/dataform.css": "/assets/lambda/css/dataform.css?id=4eca4099309e7a1b1210d4203d983936",
    "/assets/lambda/css/vendor.css": "/assets/lambda/css/vendor.css?id=6dca43a880f76a90ae2d9378ae49d31f"
}
